{
  "ipcMode": null,
  "taskRoleArn": "arn:aws:iam::922032444791:role/YamadaChatBackendContainerServiceTaskRole",
  "executionRoleArn": "arn:aws:iam::922032444791:role/YamadaChatBackendContainerServiceTaskExecutionRole",
  "containerDefinitions": [
    {
      "name": "yamada-chat-example-backend-task",
      "image": "<IMAGE1_NAME>",
      "essential": true,
      "portMappings": [
        {
          "protocol": "tcp",
          "hostPort": 8080,
          "containerPort": 8080
        }
      ],
      "logConfiguration": {
        "logDriver": "awslogs",
        "options": {
          "awslogs-group": "yamada-ecs-fargate/chat-example-backend",
          "awslogs-region": "ap-northeast-1",
          "awslogs-stream-prefix": "backend"
        }
      },
      "secrets": [
        {
          "name": "NABLARCH_DB_URL",
          "valueFrom": "/Yamada/Epona/App/Config/nablarch_db_url"
        },
        {
          "name": "NABLARCH_DB_USER",
          "valueFrom": "/Yamada/Epona/App/Config/nablarch_db_user"
        },
        {
          "name": "NABLARCH_DB_PASSWORD",
          "valueFrom": "/Yamada/Epona/App/Config/nablarch_db_password"
        },
        {
          "name": "NABLARCH_DB_SCHEMA",
          "valueFrom": "/Yamada/Epona/App/Config/nablarch_db_schema"
        },
        {
          "name": "WEBSOCKET_URI",
          "valueFrom": "/Yamada/Epona/App/Config/websocket_url"
        },
        {
          "name": "MAIL_SMTP_HOST",
          "valueFrom": "/Yamada/Epona/App/Config/mail_smtp_host"
        },
        {
          "name": "MAIL_SMTP_PORT",
          "valueFrom": "/Yamada/Epona/App/Config/mail_smtp_port"
        },
        {
          "name": "MAIL_SMTP_USER",
          "valueFrom": "/Yamada/Epona/App/Config/mail_smtp_user"
        },
        {
          "name": "MAIL_SMTP_PASSWORD",
          "valueFrom": "/Yamada/Epona/App/Config/mail_smtp_password"
        },
        {
          "name": "MAIL_FROM_ADDRESS",
          "valueFrom": "/Yamada/Epona/App/Config/mail_from_address"
        },
        {
          "name": "MAIL_RETURNPATH",
          "valueFrom": "/Yamada/Epona/App/Config/mail_returnpath"
        },
        {
          "name": "APPLICATION_EXTERNAL_URL",
          "valueFrom": "/Yamada/Epona/App/Config/application_external_url"
        },
        {
          "name": "CORS_ORIGINS",
          "valueFrom": "/Yamada/Epona/App/Config/cors_origins"
        },
        {
          "name": "NABLARCH_SESSIONSTOREHANDLER_COOKIESECURE",
          "valueFrom": "/Yamada/Epona/App/Config/nablarch_sessionstorehandler_cookiesecure"
        },
        {
          "name": "NABLARCH_LETTUCE_SIMPLE_URI",
          "valueFrom": "/Yamada/Epona/App/Config/nablarch_lettuce_simple_url"
        }
      ]
    }
  ],
  "compatibilities": [
    "FARGATE"
  ],
  "family": "yamada-chat-example-backend-task",
  "requiresCompatibilities": [
    "FARGATE"
  ],
  "networkMode": "awsvpc",
  "cpu": "512",
  "memory": "1024"
}
